…
> IMPORTANT
>
> This evaluation is highly experimental and much of its documentation
> is aspirational.

# Example

``` r
library(tibble)
library(DSEval)

dseval_dataset
#> # A tibble: 466 × 5
#>    id                  input            target competition_id metadata        
#>    <chr>               <list>           <chr>  <chr>          <list>          
#>  1 00000001_question6  <tibble [1 × 2]> D      00000001       <tibble [1 × 4]>
#>  2 00000001_question7  <tibble [1 × 2]> D      00000001       <tibble [1 × 4]>
#>  3 00000001_question8  <tibble [1 × 2]> I      00000001       <tibble [1 × 4]>
#>  4 00000001_question9  <tibble [1 × 2]> A      00000001       <tibble [1 × 4]>
#>  5 00000001_question10 <tibble [1 × 2]> H      00000001       <tibble [1 × 4]>
#>  6 00000001_question11 <tibble [1 × 2]> C      00000001       <tibble [1 × 4]>
#>  7 00000001_question12 <tibble [1 × 2]> E      00000001       <tibble [1 × 4]>
#>  8 00000001_question13 <tibble [1 × 2]> H      00000001       <tibble [1 × 4]>
#>  9 00000001_question14 <tibble [1 × 2]> D      00000001       <tibble [1 × 4]>
#> 10 00000001_question15 <tibble [1 × 2]> A      00000001       <tibble [1 × 4]>
#> # ℹ 456 more rows
```
…
